{
  "id":null,
  "processId":null,
  "date":123456789,
  "definition":{
    "process":[
      {
        "id":"Employee",
        "startSubject":true,
        "name":"Applicant",
        "subjectType":"single",
        "type":"single",
        "deactivated":false,
        "inputPool":100,
        "relatedProcess":null,
        "relatedSubject":null,
        "externalType":"external",
        "role":"Employee",
        "comment":"",
        "macros":[
          {
            "id":"##main##",
            "name":"internal behavior",
            "nodes":[
              {
                "id":0,
                "text":"Prepare Travel Application",
                "start":true,
                "end":false,
                "nodeType":"action",
                "type":"action",
                "options":{
                  "message":"*",
                  "subject":"*"
                },
                "deactivated":false,
                "majorStartNode":true,
                "conversation":null,
                "variable":null,
                "varMan":{
                  "var1":"",
                  "var2":"",
                  "operation":"and",
                  "storevar":""
                },
                "macro":"",
                "comment":""
              },
              {
                "id":1,
                "text":"",
                "start":false,
                "end":false,
                "nodeType":"send",
                "type":"send",
                "options":{
                  "message":"*",
                  "subject":"*"
                },
                "deactivated":false,
                "majorStartNode":false,
                "conversation":null,
                "variable":null,
                "varMan":{
                  "var1":"",
                  "var2":"",
                  "operation":"and",
                  "storevar":""
                },
                "macro":"",
                "comment":""
              },
              {
                "id":2,
                "text":"",
                "start":false,
                "end":false,
                "nodeType":"receive",
                "type":"receive",
                "options":{
                  "message":"*",
                  "subject":"*"
                },
                "deactivated":false,
                "majorStartNode":false,
                "conversation":null,
                "variable":null,
                "varMan":{
                  "var1":"",
                  "var2":"",
                  "operation":"and",
                  "storevar":""
                },
                "macro":"",
                "comment":""
              },
              {
                "id":3,
                "text":"End process",
                "start":false,
                "end":true,
                "nodeType":"end",
                "type":"end",
                "options":{
                  "message":"*",
                  "subject":"*"
                },
                "deactivated":false,
                "majorStartNode":false,
                "conversation":null,
                "variable":null,
                "varMan":{
                  "var1":"",
                  "var2":"",
                  "operation":"and",
                  "storevar":""
                },
                "macro":"",
                "comment":""
              },
              {
                "id":4,
                "text":"Decide whether filing again",
                "start":false,
                "end":false,
                "nodeType":"action",
                "type":"action",
                "options":{
                  "message":"*",
                  "subject":"*"
                },
                "deactivated":false,
                "majorStartNode":false,
                "conversation":null,
                "variable":null,
                "varMan":{
                  "var1":"",
                  "var2":"",
                  "operation":"and",
                  "storevar":""
                },
                "macro":"",
                "comment":""
              },
              {
                "id":5,
                "text":"",
                "start":false,
                "end":false,
                "nodeType":"send",
                "type":"send",
                "options":{
                  "message":"*",
                  "subject":"*"
                },
                "deactivated":false,
                "majorStartNode":false,
                "conversation":null,
                "variable":null,
                "varMan":{
                  "var1":"",
                  "var2":"",
                  "operation":"and",
                  "storevar":""
                },
                "macro":"",
                "comment":""
              },
              {
                "id":6,
                "text":"Make travel",
                "start":false,
                "end":false,
                "nodeType":"action",
                "type":"action",
                "options":{
                  "message":"*",
                  "subject":"*"
                },
                "deactivated":false,
                "majorStartNode":false,
                "conversation":null,
                "variable":null,
                "varMan":{
                  "var1":"",
                  "var2":"",
                  "operation":"and",
                  "storevar":""
                },
                "macro":"",
                "comment":""
              }
            ],
            "edges":[
              {
                "start":0,
                "end":1,
                "text":"Done",
                "edgeType":"exitcondition",
                "type":"exitcondition",
                "tartget":null,
                "deactivated":false,
                "optional":false,
                "priority":1,
                "manualTimeout":false,
                "variable":null,
                "correlationId":"",
                "comment":"",
                "transportMethod":[
                  "internal"
                ]
              },
              {
                "start":1,
                "end":2,
                "text":"m0",
                "edgeType":"exitcondition",
                "type":"exitcondition",
                "target":{
                  "id":"Manager",
                  "min":-1,
                  "max":-1,
                  "createNew":false,
                  "variable":null
                },
                "deactivated":false,
                "optional":false,
                "priority":1,
                "manualTimeout":false,
                "variable":null,
                "correlationId":"",
                "comment":"",
                "transportMethod":[
                  "internal"
                ]
              },
              {
                "start":2,
                "end":4,
                "text":"m1",
                "edgeType":"exitcondition",
                "type":"exitcondition",
                "target":{
                  "id":"Manager",
                  "min":-1,
                  "max":-1,
                  "createNew":false,
                  "variable":null
                },
                "deactivated":false,
                "optional":false,
                "priority":1,
                "manualTimeout":false,
                "variable":null,
                "correlationId":"",
                "comment":"",
                "transportMethod":[
                  "internal"
                ]
              },
              {
                "start":4,
                "end":5,
                "text":"Denial accepted",
                "edgeType":"exitcondition",
                "type":"exitcondition",
                "tartget":null,
                "deactivated":false,
                "optional":false,
                "priority":1,
                "manualTimeout":false,
                "variable":null,
                "correlationId":"",
                "comment":"",
                "transportMethod":[
                  "internal"
                ]
              },
              {
                "start":5,
                "end":3,
                "text":"m2",
                "edgeType":"exitcondition",
                "type":"exitcondition",
                "target":{
                  "id":"Manager",
                  "min":-1,
                  "max":-1,
                  "createNew":false,
                  "variable":null
                },
                "deactivated":false,
                "optional":false,
                "priority":1,
                "manualTimeout":false,
                "variable":null,
                "correlationId":"",
                "comment":"",
                "transportMethod":[
                  "internal"
                ]
              },
              {
                "start":4,
                "end":0,
                "text":"Redo Travel Application",
                "edgeType":"exitcondition",
                "type":"exitcondition",
                "tartget":null,
                "deactivated":false,
                "optional":false,
                "priority":1,
                "manualTimeout":false,
                "variable":null,
                "correlationId":"",
                "comment":"",
                "transportMethod":[
                  "internal"
                ]
              },
              {
                "start":2,
                "end":6,
                "text":"m3",
                "edgeType":"exitcondition",
                "type":"exitcondition",
                "target":{
                  "id":"Manager",
                  "min":-1,
                  "max":-1,
                  "createNew":false,
                  "variable":null
                },
                "deactivated":false,
                "optional":false,
                "priority":1,
                "manualTimeout":false,
                "variable":null,
                "correlationId":"",
                "comment":"",
                "transportMethod":[
                  "internal"
                ]
              },
              {
                "start":6,
                "end":3,
                "text":"",
                "edgeType":"exitcondition",
                "type":"exitcondition",
                "tartget":null,
                "deactivated":false,
                "optional":false,
                "priority":1,
                "manualTimeout":false,
                "variable":null,
                "correlationId":"",
                "comment":"",
                "transportMethod":[
                  "internal"
                ]
              }
            ],
            "nodeCounter":10
          }
        ],
        "macroCounter":0,
        "variables":{

        },
        "variableCounter":0
      },
      {
        "id":"Manager",
        "startSubject":true,
        "name":"Supervisor",
        "subjectType":"single",
        "type":"single",
        "deactivated":false,
        "inputPool":100,
        "relatedProcess":null,
        "relatedSubject":"",
        "externalType":"external",
        "role":"Supervisor",
        "comment":"",
        "macros":[
          {
            "id":"##main##",
            "name":"internal behavior",
            "nodes":[
              {
                "id":0,
                "text":"",
                "start":true,
                "end":false,
                "nodeType":"receive",
                "type":"receive",
                "options":{
                  "message":"*",
                  "subject":"*"
                },
                "deactivated":false,
                "majorStartNode":true,
                "conversation":null,
                "variable":null,
                "varMan":{
                  "var1":"",
                  "var2":"",
                  "operation":"and",
                  "storevar":""
                },
                "macro":"",
                "comment":""
              },
              {
                "id":1,
                "text":"",
                "start":false,
                "end":false,
                "nodeType":"send",
                "type":"send",
                "options":{
                  "message":"*",
                  "subject":"*"
                },
                "deactivated":false,
                "majorStartNode":false,
                "conversation":null,
                "variable":null,
                "varMan":{
                  "var1":"",
                  "var2":"",
                  "operation":"and",
                  "storevar":""
                },
                "macro":"",
                "comment":""
              },
              {
                "id":2,
                "text":"",
                "start":false,
                "end":false,
                "nodeType":"send",
                "type":"send",
                "options":{
                  "message":"*",
                  "subject":"*"
                },
                "deactivated":false,
                "majorStartNode":false,
                "conversation":null,
                "variable":null,
                "varMan":{
                  "var1":"",
                  "var2":"",
                  "operation":"and",
                  "storevar":""
                },
                "macro":"",
                "comment":""
              },
              {
                "id":3,
                "text":"End Process",
                "start":false,
                "end":true,
                "nodeType":"end",
                "type":"end",
                "options":{
                  "message":"*",
                  "subject":"*"
                },
                "deactivated":false,
                "majorStartNode":false,
                "conversation":null,
                "variable":null,
                "varMan":{
                  "var1":"",
                  "var2":"",
                  "operation":"and",
                  "storevar":""
                },
                "macro":"",
                "comment":""
              },
              {
                "id":4,
                "text":"",
                "start":false,
                "end":false,
                "nodeType":"receive",
                "type":"receive",
                "options":{
                  "message":"*",
                  "subject":"*"
                },
                "deactivated":false,
                "majorStartNode":false,
                "conversation":null,
                "variable":null,
                "varMan":{
                  "var1":"",
                  "var2":"",
                  "operation":"and",
                  "storevar":""
                },
                "macro":"",
                "comment":""
              },
              {
                "id":5,
                "text":"Check Travel Application",
                "start":false,
                "end":false,
                "nodeType":"action",
                "type":"action",
                "options":{
                  "message":"*",
                  "subject":"*"
                },
                "deactivated":false,
                "majorStartNode":false,
                "conversation":null,
                "variable":null,
                "varMan":{
                  "var1":"",
                  "var2":"",
                  "operation":"and",
                  "storevar":""
                },
                "macro":"",
                "comment":""
              },
              {
                "id":6,
                "text":"",
                "start":false,
                "end":false,
                "nodeType":"send",
                "type":"send",
                "options":{
                  "message":"*",
                  "subject":"*"
                },
                "deactivated":false,
                "majorStartNode":false,
                "conversation":null,
                "variable":null,
                "varMan":{
                  "var1":"",
                  "var2":"",
                  "operation":"and",
                  "storevar":""
                },
                "macro":"",
                "comment":""
              }
            ],
            "edges":[
              {
                "start":1,
                "end":2,
                "text":"m3",
                "edgeType":"exitcondition",
                "type":"exitcondition",
                "target":{
                  "id":"Employee",
                  "min":-1,
                  "max":-1,
                  "createNew":false,
                  "variable":null
                },
                "deactivated":false,
                "optional":false,
                "priority":1,
                "manualTimeout":false,
                "variable":null,
                "correlationId":"",
                "comment":"",
                "transportMethod":[
                  "internal"
                ]
              },
              {
                "start":2,
                "end":3,
                "text":"m4",
                "edgeType":"exitcondition",
                "type":"exitcondition",
                "target":{
                  "id":"Human Resource",
                  "min":-1,
                  "max":-1,
                  "createNew":false,
                  "variable":null
                },
                "deactivated":false,
                "optional":false,
                "priority":1,
                "manualTimeout":false,
                "variable":null,
                "correlationId":"",
                "comment":"",
                "transportMethod":[
                  "internal"
                ]
              },
              {
                "start":4,
                "end":3,
                "text":"m2",
                "edgeType":"exitcondition",
                "type":"exitcondition",
                "target":{
                  "id":"Employee",
                  "min":-1,
                  "max":-1,
                  "createNew":false,
                  "variable":null
                },
                "deactivated":false,
                "optional":false,
                "priority":1,
                "manualTimeout":false,
                "variable":null,
                "correlationId":"",
                "comment":"",
                "transportMethod":[
                  "internal"
                ]
              },
              {
                "start":0,
                "end":5,
                "text":"m0",
                "edgeType":"exitcondition",
                "type":"exitcondition",
                "target":{
                  "id":"Employee",
                  "min":-1,
                  "max":-1,
                  "createNew":false,
                  "variable":null
                },
                "deactivated":false,
                "optional":false,
                "priority":1,
                "manualTimeout":false,
                "variable":null,
                "correlationId":"",
                "comment":"",
                "transportMethod":[
                  "internal"
                ]
              },
              {
                "start":5,
                "end":1,
                "text":"Grant Permission",
                "edgeType":"exitcondition",
                "type":"exitcondition",
                "tartget":null,
                "deactivated":false,
                "optional":false,
                "priority":1,
                "manualTimeout":false,
                "variable":null,
                "correlationId":"",
                "comment":"",
                "transportMethod":[
                  "internal"
                ]
              },
              {
                "start":4,
                "end":5,
                "text":"m0",
                "edgeType":"exitcondition",
                "type":"exitcondition",
                "target":{
                  "id":"Employee",
                  "min":-1,
                  "max":-1,
                  "createNew":false,
                  "variable":null
                },
                "deactivated":false,
                "optional":false,
                "priority":1,
                "manualTimeout":false,
                "variable":null,
                "correlationId":"",
                "comment":"",
                "transportMethod":[
                  "internal"
                ]
              },
              {
                "start":5,
                "end":6,
                "text":"Deny Permission",
                "edgeType":"exitcondition",
                "type":"exitcondition",
                "tartget":null,
                "deactivated":false,
                "optional":false,
                "priority":1,
                "manualTimeout":false,
                "variable":null,
                "correlationId":"",
                "comment":"",
                "transportMethod":[
                  "internal"
                ]
              },
              {
                "start":6,
                "end":4,
                "text":"m1",
                "edgeType":"exitcondition",
                "type":"exitcondition",
                "target":{
                  "id":"Employee",
                  "min":-1,
                  "max":-1,
                  "createNew":false,
                  "variable":null
                },
                "deactivated":false,
                "optional":false,
                "priority":1,
                "manualTimeout":false,
                "variable":null,
                "correlationId":"",
                "comment":"",
                "transportMethod":[
                  "internal"
                ]
              }
            ],
            "nodeCounter":17
          }
        ],
        "macroCounter":0,
        "variables":{

        },
        "variableCounter":0
      },
      {
        "id":"Human Resource",
        "name":"Administration",
        "subjectType":"single",
        "startSubject":false,
        "type":"single",
        "deactivated":false,
        "inputPool":100,
        "relatedProcess":null,
        "relatedSubject":"",
        "externalType":"external",
        "role":"HR_Data_Access",
        "comment":"",
        "macros":[
          {
            "id":"##main##",
            "name":"internal behavior",
            "nodes":[
              {
                "id":0,
                "text":"",
                "start":true,
                "end":false,
                "nodeType":"receive",
                "type":"receive",
                "options":{
                  "message":"*",
                  "subject":"*"
                },
                "deactivated":false,
                "majorStartNode":true,
                "conversation":null,
                "variable":null,
                "varMan":{
                  "var1":"",
                  "var2":"",
                  "operation":"and",
                  "storevar":""
                },
                "macro":"",
                "comment":""
              },
              {
                "id":1,
                "text":"Handle Travel Application",
                "start":false,
                "end":false,
                "nodeType":"action",
                "type":"action",
                "options":{
                  "message":"*",
                  "subject":"*"
                },
                "deactivated":false,
                "majorStartNode":false,
                "conversation":null,
                "variable":null,
                "varMan":{
                  "var1":"",
                  "var2":"",
                  "operation":"and",
                  "storevar":""
                },
                "macro":"",
                "comment":""
              },
              {
                "id":2,
                "text":"End process",
                "start":false,
                "end":true,
                "nodeType":"end",
                "type":"end",
                "options":{
                  "message":"*",
                  "subject":"*"
                },
                "deactivated":false,
                "majorStartNode":false,
                "conversation":null,
                "variable":null,
                "varMan":{
                  "var1":"",
                  "var2":"",
                  "operation":"and",
                  "storevar":""
                },
                "macro":"",
                "comment":""
              }
            ],
            "edges":[
              {
                "start":0,
                "end":1,
                "text":"m4",
                "edgeType":"exitcondition",
                "type":"exitcondition",
                "target":{
                  "id":"Manager",
                  "min":-1,
                  "max":-1,
                  "createNew":false,
                  "variable":null
                },
                "deactivated":false,
                "optional":false,
                "priority":1,
                "manualTimeout":false,
                "variable":null,
                "correlationId":"",
                "comment":"",
                "transportMethod":[
                  "internal"
                ]
              },
              {
                "start":1,
                "end":2,
                "text":"Travel Application filed",
                "edgeType":"exitcondition",
                "type":"exitcondition",
                "tartget":null,
                "deactivated":false,
                "optional":false,
                "priority":1,
                "manualTimeout":false,
                "variable":null,
                "correlationId":"",
                "comment":"",
                "transportMethod":[
                  "internal"
                ]
              }
            ],
            "nodeCounter":3
          }
        ],
        "macroCounter":0,
        "variables":{

        },
        "variableCounter":0
      }
    ],
    "messages":{
      "m0":"Travel Application",
      "m1":"Permission denied",
      "m2":"No further<br />Travel Application",
      "m3":"Permission granted",
      "m4":"Approved<br />Travel Application"
    },
    "messageCounter":5,
    "nodeCounter":3,
    "conversations":{

    },
    "conversationCounter":0
  },
  "routings":[

  ]
}
