<?xml version="1.0"?>
<!DOCTYPE svg PUBLIC "-//W3C//DTD SVG 1.1//EN" "http://www.w3.org/Graphics/SVG/1.1/DTD/svg11.dtd">
<svg xmlns="http://www.w3.org/2000/svg" xmlns:xl="http://www.w3.org/1999/xlink" version="1.1" viewBox="65 312 97 121" width="97pt" height="121pt"><metadata xmlns:dc="http://purl.org/dc/elements/1.1/"><dc:date>2013-05-06 11:56Z</dc:date><!-- Produced by OmniGraffle Professional 5.4.2 --></metadata><defs><font-face font-family="Helvetica" font-size="15" units-per-em="1000" underline-position="-75.683594" underline-thickness="49.316406" slope="0" x-height="522.94922" cap-height="717.28516" ascent="770.01953" descent="-229.98045" font-weight="500"><font-face-src><font-face-name name="Helvetica"/></font-face-src></font-face><radialGradient cx="0" cy="0" r="1" id="Gradient" gradientUnits="userSpaceOnUse"><stop offset="0" stop-color="#e76f34"/><stop offset="1" stop-color="#ffdb4f"/></radialGradient><radialGradient id="Obj_Gradient" xl:href="#Gradient" gradientTransform="translate(113.54204 374.96456) scale(19.640337)"/><linearGradient x1="0" x2="1" id="Gradient_2" gradientUnits="userSpaceOnUse"><stop offset="0" stop-color="#9a4c25"/><stop offset="1" stop-color="#ffdb4f"/></linearGradient><linearGradient id="Obj_Gradient_2" xl:href="#Gradient_2" gradientTransform="translate(113.30344 382.19441) rotate(90) scale(15.9993)"/><linearGradient x1="0" x2="1" id="Gradient_3" gradientUnits="userSpaceOnUse"><stop offset="0" stop-color="#ad6811"/><stop offset="1" stop-color="#69442c"/></linearGradient><linearGradient id="Obj_Gradient_3" xl:href="#Gradient_3" gradientTransform="translate(113.30304 382.19441) rotate(90) scale(16.7593)"/><radialGradient cx="0" cy="0" r="1" id="Gradient_4" gradientUnits="userSpaceOnUse"><stop offset="0" stop-color="#ffef6f"/><stop offset="1" stop-color="#e76f34"/></radialGradient><radialGradient id="Obj_Gradient_4" xl:href="#Gradient_4" gradientTransform="translate(116.711256 373.27745) scale(15.89849)"/><linearGradient x1="0" x2="1" id="Gradient_5" gradientUnits="userSpaceOnUse"><stop offset="0" stop-color="#ad6811"/><stop offset="1" stop-color="#895a3b"/></linearGradient><linearGradient id="Obj_Gradient_5" xl:href="#Gradient_5" gradientTransform="translate(113.58709 372.01611) rotate(90) scale(13.9289)"/><linearGradient x1="0" x2="1" id="Gradient_6" gradientUnits="userSpaceOnUse"><stop offset="0" stop-color="#83afbb"/><stop offset=".1190476" stop-color="#afced8"/><stop offset="1" stop-color="white"/></linearGradient><linearGradient id="Obj_Gradient_6" xl:href="#Gradient_6" gradientTransform="translate(113.17159 413.20801) rotate(90) scale(4.79274)"/><linearGradient x1="0" x2="1" id="Gradient_7" gradientUnits="userSpaceOnUse"><stop offset="0" stop-color="#8f83cb"/><stop offset="1" stop-color="#47469e"/></linearGradient><linearGradient id="Obj_Gradient_7" xl:href="#Gradient_7" gradientTransform="translate(113.50079 387.95071) rotate(90) scale(26.2308)"/><linearGradient x1="0" x2="1" id="Gradient_8" gradientUnits="userSpaceOnUse"><stop offset="0" stop-color="#6b72b8"/><stop offset="1" stop-color="#353b8e"/></linearGradient><linearGradient id="Obj_Gradient_8" xl:href="#Gradient_8" gradientTransform="translate(101.45064 390.02251) rotate(90) scale(23.5488)"/><linearGradient id="Obj_Gradient_9" xl:href="#Gradient_8" gradientTransform="translate(125.58964 390.02251) rotate(90) scale(23.5488)"/></defs><g stroke="none" stroke-opacity="1" stroke-dasharray="none" fill="none" fill-opacity="1"><title>Amazon Veriant</title><g><title>Layer 1</title><path d="M 72 314.11581 L 155 314.11581 C 157.76142 314.11581 160 316.35439 160 319.11581 L 160 425.34738 C 160 428.1088 157.76142 430.34738 155 430.34738 L 72 430.34738 C 69.238576 430.34738 67 428.1088 67 425.34738 C 67 425.34738 67 425.34738 67 425.34738 L 67 319.11581 C 67 316.35439 69.238576 314.11581 72 314.11581 C 72 314.11581 72 314.11581 72 314.11581 Z" fill="#e9e9e9"/><path d="M 72 314.11581 L 155 314.11581 C 157.76142 314.11581 160 316.35439 160 319.11581 L 160 425.34738 C 160 428.1088 157.76142 430.34738 155 430.34738 L 72 430.34738 C 69.238576 430.34738 67 428.1088 67 425.34738 C 67 425.34738 67 425.34738 67 425.34738 L 67 319.11581 C 67 316.35439 69.238576 314.11581 72 314.11581 C 72 314.11581 72 314.11581 72 314.11581 Z" stroke="black" stroke-linecap="butt" stroke-linejoin="miter" stroke-width="1" stroke-dasharray="4,4"/><text transform="translate(72 314.11581)" fill="black"><tspan font-family="Helvetica" font-size="15" font-weight="500" x="0" y="15" textLength="50.031738">Staples</tspan><tspan font-family="Helvetica" font-size="15" font-weight="500" x="0" y="33" textLength="29.157715">(ST)</tspan></text><path d="M 113.54204 389.81331 C 122.308655 389.81331 127.25975 385.75518 126.273085 385.66552 C 125.28639 385.57536 123.513115 384.6743 124.34683 382.46692 C 125.18106 380.2591 125.30362 375.37584 125.30362 375.37584 C 125.30362 366.94808 120.02482 360.11581 113.54204 360.11581 C 107.05927 360.11581 101.78044 366.94808 101.78044 375.37584 L 102.73723 382.46692 C 103.570945 384.6743 101.797666 385.57536 100.811 385.66552 C 99.824334 385.75518 104.77543 389.81331 113.54204 389.81331 Z" fill="url(#Obj_Gradient)"/><path d="M 113.409605 382.83336 C 112.17065 382.83336 110.09212 381.17537 109.960796 383.201 C 109.58474 389.01452 104.10579 386.67593 104.10579 388.84776 C 104.10579 392.82816 110.68158 398.19371 113.409605 398.19371 C 116.137644 398.19371 122.50109 392.70978 122.50109 388.7292 C 122.50109 386.55736 117.23424 389.01452 116.857985 383.201 C 116.72686 381.17537 114.64856 382.83336 113.409605 382.83336 Z" fill="url(#Obj_Gradient_2)"/><path d="M 110.79813 382.95416 C 110.62237 382.95416 110.38229 382.95416 110.33973 383.60555 C 110.088516 387.48992 107.62082 388.02581 105.987346 388.38037 C 104.89732 388.61691 104.48554 388.75114 104.48554 389.22776 C 104.48554 392.88827 110.75203 398.19395 113.409175 398.19395 C 116.00346 398.19395 122.12053 392.81839 122.12053 389.10873 C 122.12053 388.65997 121.799385 388.52625 120.69369 388.30135 C 119.11546 387.97972 116.73028 387.494 116.47909 383.60555 C 116.43653 382.95416 116.19595 382.95416 116.02068 382.95416 C 115.71224 382.95416 115.27663 383.1046 114.855733 383.24998 C 114.36645 383.41863 113.860466 383.59338 113.409175 383.59338 C 112.95887 383.59338 112.45289 383.41863 111.9636 383.24998 C 111.54218 383.1046 111.10658 382.95416 110.79813 382.95416 M 113.409175 398.95371 C 110.370144 398.95371 103.72579 393.40392 103.72579 389.22776 C 103.72579 388.09369 104.79352 387.86172 105.826275 387.63783 C 107.48609 387.2772 109.367234 386.86895 109.581515 383.5564 C 109.654436 382.43094 110.28353 382.19441 110.79813 382.19441 C 111.23424 382.19441 111.7311 382.3656 112.21125 382.53173 C 112.64128 382.68015 113.08601 382.83361 113.409175 382.83361 C 113.732814 382.83361 114.17753 382.68015 114.60754 382.53173 C 115.0882 382.3656 115.58459 382.19441 116.02068 382.19441 C 116.53531 382.19441 117.16386 382.43094 117.2368 383.5564 C 117.451084 386.8654 119.25423 387.23263 120.845146 387.55679 C 121.84601 387.76041 122.88029 387.97113 122.88029 389.10873 C 122.88029 393.33605 116.38182 398.95371 113.409175 398.95371" fill="url(#Obj_Gradient_3)"/><path d="M 122.63967 372.35647 C 122.44061 372.32154 122.24054 372.34631 122.04756 372.41827 L 122.04756 372.41773 C 116.90956 371.61695 111.075633 367.74421 111.075633 367.74421 C 107.59897 371.71117 105.19156 372.44308 105.19156 372.44308 C 104.97831 372.35089 104.755954 372.31744 104.53512 372.35647 C 103.67254 372.50944 103.160976 373.69112 103.39245 374.99635 C 103.59049 376.12032 104.27529 376.96768 105.011745 377.0852 C 105.7482 381.93802 109.32212 385.62081 113.62285 385.62081 C 117.92764 385.62081 121.50357 381.9304 122.235476 377.07051 C 122.94407 376.91096 123.590366 376.08282 123.78234 374.99635 C 124.01332 373.69112 123.50174 372.50944 122.63967 372.35647 Z" fill="url(#Obj_Gradient_4)"/><path d="M 121.91505 377.0219 L 121.94796 376.8026 L 122.164246 376.75446 C 122.67987 376.65417 123.29426 375.939 123.463426 374.94018 C 123.49788 374.7462 123.51357 374.55624 123.51357 374.37339 C 123.51408 373.90335 123.40366 373.48344 123.22942 373.18663 C 123.05266 372.8863 122.82979 372.71915 122.583644 372.67558 L 122.63986 372.35648 L 122.58261 372.6751 C 122.54107 372.6685 122.50057 372.66442 122.459544 372.66393 C 122.36228 372.66442 122.26352 372.68318 122.16171 372.72167 L 121.816774 372.85133 L 121.64761 372.13312 L 122.28378 372.02776 C 122.34151 372.02118 122.400264 372.01611 122.459544 372.01611 C 122.53805 372.01611 122.618074 372.0232 122.69658 372.03738 L 122.69658 372.03787 C 123.17117 372.12147 123.54751 372.44258 123.78861 372.85943 C 124.03325 373.27882 124.160885 373.80406 124.16139 374.37339 C 124.16139 374.59371 124.14215 374.82165 124.10112 375.05211 C 123.904585 376.12996 123.317056 377.01127 122.524364 377.3177 C 121.7094 382.20295 118.06611 385.93843 113.622555 385.94501 C 109.18759 385.93843 105.54887 382.21662 104.72528 377.34456 C 103.894626 377.06952 103.27567 376.16236 103.073066 375.0526 C 103.03206 374.82116 103.01279 374.59371 103.01279 374.37339 C 103.0133 373.80406 103.14093 373.27882 103.38507 372.85943 C 103.62718 372.44258 104.00352 372.12147 104.47509 372.03787 C 104.55865 372.0227 104.6402 372.01611 104.7187 372.01611 C 104.799236 372.01611 104.87977 372.02118 104.958274 372.0369 C 105.3878 372.12298 105.574184 372.23594 105.574184 372.23594 L 105.41819 372.8944 L 105.06262 372.73992 C 104.944104 372.68875 104.829627 372.66393 104.7187 372.66393 C 104.67412 372.66393 104.632585 372.66749 104.59107 372.67558 C 104.343886 372.71915 104.12102 372.8868 103.94477 373.18663 C 103.77002 373.48344 103.6596 373.90335 103.66011 374.37339 C 103.66011 374.55571 103.67631 374.74565 103.71076 374.93965 C 103.88602 375.97547 104.537374 376.70026 105.06262 376.7646 L 105.29612 376.80158 L 105.332075 377.03557 C 106.05233 381.76685 109.520365 385.30275 113.622555 385.29668 C 117.72877 385.30275 121.19936 381.75976 121.91505 377.0219 Z" fill="url(#Obj_Gradient_5)"/><ellipse cx="113.17159" cy="415.60438" rx="16.231827" ry="2.3963737" fill="url(#Obj_Gradient_6)"/><path d="M 117.217636 373.82487 C 117.217636 374.36595 116.872904 374.80463 116.44782 374.80463 C 116.022525 374.80463 115.677796 374.36595 115.677796 373.82487 C 115.677796 373.2838 116.022525 372.84511 116.44782 372.84511 C 116.872904 372.84511 117.217636 373.2838 117.217636 373.82487 Z" fill="#69442c"/><path d="M 111.477636 373.82487 C 111.477636 374.36595 111.132904 374.80463 110.70782 374.80463 C 110.28253 374.80463 109.937796 374.36595 109.937796 373.82487 C 109.937796 373.2838 110.28253 372.84511 110.70782 372.84511 C 111.132904 372.84511 111.477636 373.2838 111.477636 373.82487 Z" fill="#69442c"/><path d="M 110.299183 380.47738 C 110.14172 380.39097 110.0847 380.19399 110.17109 380.0374 C 110.257284 379.88014 110.45405 379.8229 110.61107 379.90952 C 111.38478 380.33612 112.39932 380.60006 113.50997 380.59963 C 114.609174 380.59963 115.61442 380.3415 116.38532 379.92249 C 116.54235 379.83694 116.739117 379.89505 116.82422 380.0523 C 116.90975 380.20954 116.851866 380.40632 116.6944 380.4912 C 115.815305 380.96855 114.71026 381.2472 113.50997 381.24761 C 112.29694 381.24697 111.18195 380.9625 110.299183 380.47738 Z" fill="#69442c"/><path d="M 113.56061 378.27194 C 112.90203 378.27258 112.30567 377.96997 111.86332 377.49544 C 111.74105 377.36476 111.74754 377.16 111.87865 377.03752 C 112.00911 376.91548 112.21431 376.92197 112.33634 377.05243 C 112.680854 377.41919 113.104214 377.62374 113.56061 377.62416 C 114.003624 377.62374 114.414876 377.43107 114.75399 377.08504 L 114.754635 377.08504 C 114.879047 376.95718 115.08425 376.95437 115.212323 377.07943 C 115.3402 377.20449 115.34301 377.40947 115.21794 377.53734 C 114.78033 377.98726 114.19974 378.27194 113.562125 378.27194 Z" fill="#69442c"/><path d="M 121.12114 387.95071 C 123.374 388.36975 125.61777 389.0644 127.04874 390.2137 C 130.889576 393.299 131.31791 403.72466 131.39328 404.73142 C 131.70799 408.95025 127.85591 414.3655 113.49929 414.17671 C 99.14267 414.3655 95.293594 408.95025 95.60831 404.73142 C 95.68346 403.72466 96.11201 393.299 99.95263 390.2137 C 101.383603 389.0644 104.43088 388.14057 105.88023 387.95071 C 105.86078 388.24167 104.991394 396.84802 113.39928 396.84802 C 121.807164 396.84802 121.12114 387.95071 121.12114 387.95071 Z" fill="url(#Obj_Gradient_7)"/><path d="M 105.531757 388.34817 C 103.10482 388.83698 101.29734 389.5489 100.15471 390.46625 C 97.889366 392.2862 96.39511 397.2686 95.94735 404.4956 C 95.94042 404.61052 95.934806 404.6982 95.9305 404.75566 C 95.840207 405.96849 96.073276 407.78133 97.69776 409.53154 C 99.52964 411.5049 103.6327 413.85772 112.77237 413.85772 C 113.010835 413.8588 113.250814 413.856 113.494246 413.85277 C 113.745876 413.856 113.985416 413.85772 114.22236 413.85772 C 123.365716 413.8575 127.46965 411.5038 129.30237 409.52938 C 130.92667 407.7794 131.15974 405.96763 131.06945 404.75566 C 131.06511 404.6982 131.05971 404.61052 131.0526 404.4956 C 130.60484 397.2686 129.1108 392.2862 126.8452 390.46625 C 125.7013 389.54782 123.89057 388.83525 121.45911 388.34625 C 121.47162 389.48777 121.30638 392.68042 119.237165 394.9153 C 117.85067 396.4128 115.88618 397.17206 113.39856 397.17206 C 110.91222 397.17206 108.965 396.41348 107.61115 394.9177 C 105.591565 392.68624 105.49372 389.499 105.531757 388.34817 M 112.77237 414.50571 C 103.398137 414.50571 99.142566 412.04035 97.222797 409.9724 C 95.43931 408.0509 95.18443 406.04883 95.28443 404.7075 C 95.28855 404.65178 95.293946 404.56667 95.300657 404.45543 C 95.759867 397.04417 97.33942 391.89677 99.74907 389.96103 C 101.038814 388.92533 103.08148 388.14169 105.82033 387.63237 L 106.24431 387.55331 L 106.20197 387.98272 C 106.19811 388.02266 105.83565 391.99375 108.0941 394.48571 C 109.31991 395.83827 111.10468 396.52404 113.39856 396.52404 C 115.69675 396.52404 117.50032 395.83568 118.75892 394.47814 C 121.072036 391.98318 120.80031 388.01512 120.79728 387.97536 L 120.765556 387.55547 L 121.17962 387.63237 C 123.91843 388.14169 125.961355 388.92533 127.25106 389.96103 C 129.66049 391.89677 131.24008 397.04417 131.69929 404.45543 C 131.706185 404.56667 131.71136 404.65178 131.715485 404.7075 C 131.8157 406.04797 131.560384 408.04894 129.777335 409.97025 C 127.856945 412.03906 123.599406 414.5055 114.22236 414.50571 C 113.98261 414.50571 113.740046 414.504 113.494246 414.50075 C 113.25772 414.504 113.01364 414.5055 112.77454 414.50571 Z" fill="#4635a3"/><path d="M 100.796284 390.02251 C 100.570566 390.16249 100.359977 390.31045 100.16688 390.46617 C 98.369357 391.89154 97.28095 395.22134 96.69798 398.31245 C 96.105936 401.40725 95.980655 404.24199 95.942644 404.75627 C 95.931627 404.90272 95.92579 405.05112 95.92579 405.20103 C 95.930113 407.12879 96.84313 409.25505 99.404404 410.94522 C 102.054674 412.5086 103.78675 412.93627 106.97549 413.57131 C 102.58516 412.44165 97.684 408.2781 99.970315 400.37328 C 101.77064 394.14826 100.796284 390.02251 100.796284 390.02251 Z" fill="url(#Obj_Gradient_8)"/><path d="M 126.244 390.02251 C 126.46972 390.16249 126.68031 390.31045 126.87341 390.46617 C 128.67093 391.89154 129.759336 395.22134 130.34231 398.31245 C 130.93435 401.40725 131.05963 404.24199 131.09764 404.75627 C 131.10866 404.90272 131.11449 405.05112 131.11449 405.20103 C 131.11017 407.12879 130.19716 409.25505 127.63588 410.94522 C 124.98561 412.5086 123.25354 412.93627 120.06479 413.57131 C 124.455126 412.44165 129.35629 408.2781 127.06997 400.37328 C 125.269646 394.14826 126.244 390.02251 126.244 390.02251 Z" fill="url(#Obj_Gradient_9)"/></g></g></svg>
